[
	[
		"text_files/01.txt",
		{
			"The": {
				"quick": [1, 1]
			},
			"the": {
				"lazy": [1, 1]
			},
			"quick": {
				"brown": [1, 1]
			},
			"brown": {
				"fox": [1, 1]
			},
			"fox": {
				"jumps": [1, 1]
			},
			"jumps": {
				"over": [1, 1]
			},
			"over": {
				"the": [1, 1]
			},
			"lazy": {
				"dog": [1, 1]
			},
			"dog": {
				".": [1, 1]
			},
			".": {
			}
		}
	],
	[
		"text_files/02.txt",
		{
			"The": {
				"quick-brown": [1, 0.5],
				"fox": [1, 0.5]
			},
			"the": {
				"lazy": [1, 0.5],
				"dog": [1, 0.5]
			},
			"quick-brown": {
				"fox": [1, 1]
			},
			"fox": {
				"--": [1, 0.5],
				"is": [1, 0.5]
			},
			"--": {
				"jumps": [1, 1]
			},
			"jumps": {
				"over": [1, 1]
			},
			"over": {
				";": [1, 1]
			},
			";": {
				"the": [1, 1]
			},
			"lazy": {
				"dog": [1, 1]
			},
			"dog": {
				"!?": [1, 0.5],
				".": [1, 0.5]
			},
			"!?": {
				"The": [1, 1]
			},
			"is": {
				"the": [1, 1]
			},
			".": {
			}
		}
	]
]
